^F:\GODOT\JEREPROJECT\VISUALSTUDIOPROJECT\VISUALSTUDIOPROJECT\GDEXAMPLE.CPP
/c /ZI /JMC /nologo /W3 /WX- /diagnostics:classic /sdl /Od /D _WINDLL /D _MBCS /Gm- /EHsc /RTC1 /MDd /GS /fp:precise /permissive- /Zc:wchar_t /Zc:forScope /Zc:inline /Fo"X64\DEBUG\\" /Fd"X64\DEBUG\VC141.PDB" /Gd /TP /FC F:\GODOT\JEREPROJECT\VISUALSTUDIOPROJECT\VISUALSTUDIOPROJECT\GDEXAMPLE.CPP
^F:\GODOT\JEREPROJECT\VISUALSTUDIOPROJECT\VISUALSTUDIOPROJECT\GODOTLIBRARY.CPP
/c /ZI /JMC /nologo /W3 /WX- /diagnostics:classic /sdl /Od /D _WINDLL /D _MBCS /Gm- /EHsc /RTC1 /MDd /GS /fp:precise /permissive- /Zc:wchar_t /Zc:forScope /Zc:inline /Fo"X64\DEBUG\\" /Fd"X64\DEBUG\VC141.PDB" /Gd /TP /FC F:\GODOT\JEREPROJECT\VISUALSTUDIOPROJECT\VISUALSTUDIOPROJECT\GODOTLIBRARY.CPP
