^F:\GODOT\JEREPROJECT\VISUALSTUDIOPROJECT\VISUALSTUDIOPROJECT\GDEXAMPLE.CPP
F:\GODOT\JEREPROJECT\VISUALSTUDIOPROJECT\VISUALSTUDIOPROJECT\GDEXAMPLE.H
F:\GODOT\JEREPROJECT\GODOT-CPP-MASTER\INCLUDE\CORE\GODOT.HPP
C:\PROGRAM FILES (X86)\MICROSOFT VISUAL STUDIO\2017\COMMUNITY\VC\TOOLS\MSVC\14.16.27023\INCLUDE\CSTDLIB
C:\PROGRAM FILES (X86)\MICROSOFT VISUAL STUDIO\2017\COMMUNITY\VC\TOOLS\MSVC\14.16.27023\INCLUDE\YVALS_CORE.H
C:\PROGRAM FILES (X86)\MICROSOFT VISUAL STUDIO\2017\COMMUNITY\VC\TOOLS\MSVC\14.16.27023\INCLUDE\XKEYCHECK.H
C:\PROGRAM FILES (X86)\MICROSOFT VISUAL STUDIO\2017\COMMUNITY\VC\TOOLS\MSVC\14.16.27023\INCLUDE\CRTDEFS.H
C:\PROGRAM FILES (X86)\MICROSOFT VISUAL STUDIO\2017\COMMUNITY\VC\TOOLS\MSVC\14.16.27023\INCLUDE\VCRUNTIME.H
C:\PROGRAM FILES (X86)\MICROSOFT VISUAL STUDIO\2017\COMMUNITY\VC\TOOLS\MSVC\14.16.27023\INCLUDE\SAL.H
C:\PROGRAM FILES (X86)\MICROSOFT VISUAL STUDIO\2017\COMMUNITY\VC\TOOLS\MSVC\14.16.27023\INCLUDE\CONCURRENCYSAL.H
C:\PROGRAM FILES (X86)\MICROSOFT VISUAL STUDIO\2017\COMMUNITY\VC\TOOLS\MSVC\14.16.27023\INCLUDE\VADEFS.H
C:\PROGRAM FILES (X86)\WINDOWS KITS\10\INCLUDE\10.0.17763.0\UCRT\CORECRT.H
C:\PROGRAM FILES (X86)\WINDOWS KITS\10\INCLUDE\10.0.17763.0\UCRT\STDLIB.H
C:\PROGRAM FILES (X86)\WINDOWS KITS\10\INCLUDE\10.0.17763.0\UCRT\CORECRT_MALLOC.H
C:\PROGRAM FILES (X86)\WINDOWS KITS\10\INCLUDE\10.0.17763.0\UCRT\CORECRT_SEARCH.H
C:\PROGRAM FILES (X86)\WINDOWS KITS\10\INCLUDE\10.0.17763.0\UCRT\STDDEF.H
C:\PROGRAM FILES (X86)\WINDOWS KITS\10\INCLUDE\10.0.17763.0\UCRT\CORECRT_WSTDLIB.H
C:\PROGRAM FILES (X86)\MICROSOFT VISUAL STUDIO\2017\COMMUNITY\VC\TOOLS\MSVC\14.16.27023\INCLUDE\LIMITS.H
C:\PROGRAM FILES (X86)\WINDOWS KITS\10\INCLUDE\10.0.17763.0\UCRT\MATH.H
C:\PROGRAM FILES (X86)\WINDOWS KITS\10\INCLUDE\10.0.17763.0\UCRT\CORECRT_MATH.H
C:\PROGRAM FILES (X86)\MICROSOFT VISUAL STUDIO\2017\COMMUNITY\VC\TOOLS\MSVC\14.16.27023\INCLUDE\CSTRING
C:\PROGRAM FILES (X86)\MICROSOFT VISUAL STUDIO\2017\COMMUNITY\VC\TOOLS\MSVC\14.16.27023\INCLUDE\YVALS.H
C:\PROGRAM FILES (X86)\WINDOWS KITS\10\INCLUDE\10.0.17763.0\UCRT\CRTDBG.H
C:\PROGRAM FILES (X86)\MICROSOFT VISUAL STUDIO\2017\COMMUNITY\VC\TOOLS\MSVC\14.16.27023\INCLUDE\VCRUNTIME_NEW_DEBUG.H
C:\PROGRAM FILES (X86)\MICROSOFT VISUAL STUDIO\2017\COMMUNITY\VC\TOOLS\MSVC\14.16.27023\INCLUDE\VCRUNTIME_NEW.H
C:\PROGRAM FILES (X86)\MICROSOFT VISUAL STUDIO\2017\COMMUNITY\VC\TOOLS\MSVC\14.16.27023\INCLUDE\USE_ANSI.H
C:\PROGRAM FILES (X86)\WINDOWS KITS\10\INCLUDE\10.0.17763.0\UCRT\STRING.H
C:\PROGRAM FILES (X86)\WINDOWS KITS\10\INCLUDE\10.0.17763.0\UCRT\CORECRT_MEMORY.H
C:\PROGRAM FILES (X86)\WINDOWS KITS\10\INCLUDE\10.0.17763.0\UCRT\CORECRT_MEMCPY_S.H
C:\PROGRAM FILES (X86)\WINDOWS KITS\10\INCLUDE\10.0.17763.0\UCRT\ERRNO.H
C:\PROGRAM FILES (X86)\MICROSOFT VISUAL STUDIO\2017\COMMUNITY\VC\TOOLS\MSVC\14.16.27023\INCLUDE\VCRUNTIME_STRING.H
C:\PROGRAM FILES (X86)\WINDOWS KITS\10\INCLUDE\10.0.17763.0\UCRT\CORECRT_WSTRING.H
F:\GODOT\JEREPROJECT\GODOT-CPP-MASTER\GODOT_HEADERS\GDNATIVE_API_STRUCT.GEN.H
F:\GODOT\JEREPROJECT\GODOT-CPP-MASTER\GODOT_HEADERS\GDNATIVE\GDNATIVE.H
C:\PROGRAM FILES (X86)\MICROSOFT VISUAL STUDIO\2017\COMMUNITY\VC\TOOLS\MSVC\14.16.27023\INCLUDE\STDBOOL.H
C:\PROGRAM FILES (X86)\MICROSOFT VISUAL STUDIO\2017\COMMUNITY\VC\TOOLS\MSVC\14.16.27023\INCLUDE\STDINT.H
F:\GODOT\JEREPROJECT\GODOT-CPP-MASTER\GODOT_HEADERS\GDNATIVE\STRING.H
C:\PROGRAM FILES (X86)\WINDOWS KITS\10\INCLUDE\10.0.17763.0\UCRT\WCHAR.H
C:\PROGRAM FILES (X86)\WINDOWS KITS\10\INCLUDE\10.0.17763.0\UCRT\CORECRT_WCONIO.H
C:\PROGRAM FILES (X86)\WINDOWS KITS\10\INCLUDE\10.0.17763.0\UCRT\CORECRT_STDIO_CONFIG.H
C:\PROGRAM FILES (X86)\WINDOWS KITS\10\INCLUDE\10.0.17763.0\UCRT\CORECRT_WCTYPE.H
C:\PROGRAM FILES (X86)\WINDOWS KITS\10\INCLUDE\10.0.17763.0\UCRT\CORECRT_WDIRECT.H
C:\PROGRAM FILES (X86)\WINDOWS KITS\10\INCLUDE\10.0.17763.0\UCRT\CORECRT_WIO.H
C:\PROGRAM FILES (X86)\WINDOWS KITS\10\INCLUDE\10.0.17763.0\UCRT\CORECRT_SHARE.H
C:\PROGRAM FILES (X86)\WINDOWS KITS\10\INCLUDE\10.0.17763.0\UCRT\CORECRT_WPROCESS.H
C:\PROGRAM FILES (X86)\WINDOWS KITS\10\INCLUDE\10.0.17763.0\UCRT\CORECRT_WSTDIO.H
C:\PROGRAM FILES (X86)\WINDOWS KITS\10\INCLUDE\10.0.17763.0\UCRT\CORECRT_WTIME.H
C:\PROGRAM FILES (X86)\WINDOWS KITS\10\INCLUDE\10.0.17763.0\UCRT\SYS\STAT.H
C:\PROGRAM FILES (X86)\WINDOWS KITS\10\INCLUDE\10.0.17763.0\UCRT\SYS\TYPES.H
F:\GODOT\JEREPROJECT\GODOT-CPP-MASTER\GODOT_HEADERS\GDNATIVE\ARRAY.H
F:\GODOT\JEREPROJECT\GODOT-CPP-MASTER\GODOT_HEADERS\GDNATIVE\POOL_ARRAYS.H
F:\GODOT\JEREPROJECT\GODOT-CPP-MASTER\GODOT_HEADERS\GDNATIVE\COLOR.H
F:\GODOT\JEREPROJECT\GODOT-CPP-MASTER\GODOT_HEADERS\GDNATIVE\VECTOR2.H
F:\GODOT\JEREPROJECT\GODOT-CPP-MASTER\GODOT_HEADERS\GDNATIVE\VECTOR3.H
F:\GODOT\JEREPROJECT\GODOT-CPP-MASTER\GODOT_HEADERS\GDNATIVE\BASIS.H
F:\GODOT\JEREPROJECT\GODOT-CPP-MASTER\GODOT_HEADERS\GDNATIVE\QUAT.H
F:\GODOT\JEREPROJECT\GODOT-CPP-MASTER\GODOT_HEADERS\GDNATIVE\VARIANT.H
F:\GODOT\JEREPROJECT\GODOT-CPP-MASTER\GODOT_HEADERS\GDNATIVE\AABB.H
F:\GODOT\JEREPROJECT\GODOT-CPP-MASTER\GODOT_HEADERS\GDNATIVE\PLANE.H
F:\GODOT\JEREPROJECT\GODOT-CPP-MASTER\GODOT_HEADERS\GDNATIVE\DICTIONARY.H
F:\GODOT\JEREPROJECT\GODOT-CPP-MASTER\GODOT_HEADERS\GDNATIVE\NODE_PATH.H
F:\GODOT\JEREPROJECT\GODOT-CPP-MASTER\GODOT_HEADERS\GDNATIVE\RECT2.H
F:\GODOT\JEREPROJECT\GODOT-CPP-MASTER\GODOT_HEADERS\GDNATIVE\RID.H
F:\GODOT\JEREPROJECT\GODOT-CPP-MASTER\GODOT_HEADERS\GDNATIVE\TRANSFORM.H
F:\GODOT\JEREPROJECT\GODOT-CPP-MASTER\GODOT_HEADERS\GDNATIVE\TRANSFORM2D.H
F:\GODOT\JEREPROJECT\GODOT-CPP-MASTER\GODOT_HEADERS\GDNATIVE\STRING_NAME.H
F:\GODOT\JEREPROJECT\GODOT-CPP-MASTER\GODOT_HEADERS\ANDROID\GODOT_ANDROID.H
F:\GODOT\JEREPROJECT\GODOT-CPP-MASTER\GODOT_HEADERS\ARVR\GODOT_ARVR.H
F:\GODOT\JEREPROJECT\GODOT-CPP-MASTER\GODOT_HEADERS\NATIVESCRIPT\GODOT_NATIVESCRIPT.H
F:\GODOT\JEREPROJECT\GODOT-CPP-MASTER\GODOT_HEADERS\NET\GODOT_NET.H
F:\GODOT\JEREPROJECT\GODOT-CPP-MASTER\GODOT_HEADERS\NET\GODOT_WEBRTC.H
F:\GODOT\JEREPROJECT\GODOT-CPP-MASTER\GODOT_HEADERS\PLUGINSCRIPT\GODOT_PLUGINSCRIPT.H
F:\GODOT\JEREPROJECT\GODOT-CPP-MASTER\GODOT_HEADERS\VIDEODECODER\GODOT_VIDEODECODER.H
C:\PROGRAM FILES (X86)\MICROSOFT VISUAL STUDIO\2017\COMMUNITY\VC\TOOLS\MSVC\14.16.27023\INCLUDE\TYPEINFO
C:\PROGRAM FILES (X86)\MICROSOFT VISUAL STUDIO\2017\COMMUNITY\VC\TOOLS\MSVC\14.16.27023\INCLUDE\EXCEPTION
C:\PROGRAM FILES (X86)\MICROSOFT VISUAL STUDIO\2017\COMMUNITY\VC\TOOLS\MSVC\14.16.27023\INCLUDE\TYPE_TRAITS
C:\PROGRAM FILES (X86)\MICROSOFT VISUAL STUDIO\2017\COMMUNITY\VC\TOOLS\MSVC\14.16.27023\INCLUDE\XSTDDEF
C:\PROGRAM FILES (X86)\MICROSOFT VISUAL STUDIO\2017\COMMUNITY\VC\TOOLS\MSVC\14.16.27023\INCLUDE\CSTDDEF
C:\PROGRAM FILES (X86)\MICROSOFT VISUAL STUDIO\2017\COMMUNITY\VC\TOOLS\MSVC\14.16.27023\INCLUDE\XTR1COMMON
C:\PROGRAM FILES (X86)\MICROSOFT VISUAL STUDIO\2017\COMMUNITY\VC\TOOLS\MSVC\14.16.27023\INCLUDE\INITIALIZER_LIST
C:\PROGRAM FILES (X86)\WINDOWS KITS\10\INCLUDE\10.0.17763.0\UCRT\MALLOC.H
C:\PROGRAM FILES (X86)\MICROSOFT VISUAL STUDIO\2017\COMMUNITY\VC\TOOLS\MSVC\14.16.27023\INCLUDE\VCRUNTIME_EXCEPTION.H
C:\PROGRAM FILES (X86)\MICROSOFT VISUAL STUDIO\2017\COMMUNITY\VC\TOOLS\MSVC\14.16.27023\INCLUDE\EH.H
C:\PROGRAM FILES (X86)\WINDOWS KITS\10\INCLUDE\10.0.17763.0\UCRT\CORECRT_TERMINATE.H
C:\PROGRAM FILES (X86)\MICROSOFT VISUAL STUDIO\2017\COMMUNITY\VC\TOOLS\MSVC\14.16.27023\INCLUDE\VCRUNTIME_TYPEINFO.H
F:\GODOT\JEREPROJECT\GODOT-CPP-MASTER\INCLUDE\CORE\CORETYPES.HPP
F:\GODOT\JEREPROJECT\GODOT-CPP-MASTER\INCLUDE\CORE\DEFS.HPP
F:\GODOT\JEREPROJECT\GODOT-CPP-MASTER\INCLUDE\CORE\GODOTGLOBAL.HPP
F:\GODOT\JEREPROJECT\GODOT-CPP-MASTER\INCLUDE\CORE\ARRAY.HPP
F:\GODOT\JEREPROJECT\GODOT-CPP-MASTER\INCLUDE\CORE\STRING.HPP
F:\GODOT\JEREPROJECT\GODOT-CPP-MASTER\INCLUDE\CORE\AABB.HPP
F:\GODOT\JEREPROJECT\GODOT-CPP-MASTER\INCLUDE\CORE\VECTOR3.HPP
C:\PROGRAM FILES (X86)\MICROSOFT VISUAL STUDIO\2017\COMMUNITY\VC\TOOLS\MSVC\14.16.27023\INCLUDE\CMATH
C:\PROGRAM FILES (X86)\MICROSOFT VISUAL STUDIO\2017\COMMUNITY\VC\TOOLS\MSVC\14.16.27023\INCLUDE\XTGMATH.H
F:\GODOT\JEREPROJECT\GODOT-CPP-MASTER\INCLUDE\CORE\PLANE.HPP
F:\GODOT\JEREPROJECT\GODOT-CPP-MASTER\INCLUDE\CORE\BASIS.HPP
F:\GODOT\JEREPROJECT\GODOT-CPP-MASTER\INCLUDE\CORE\COLOR.HPP
F:\GODOT\JEREPROJECT\GODOT-CPP-MASTER\INCLUDE\CORE\DICTIONARY.HPP
F:\GODOT\JEREPROJECT\GODOT-CPP-MASTER\INCLUDE\CORE\VARIANT.HPP
F:\GODOT\JEREPROJECT\GODOT-CPP-MASTER\INCLUDE\CORE\NODEPATH.HPP
F:\GODOT\JEREPROJECT\GODOT-CPP-MASTER\INCLUDE\CORE\POOLARRAYS.HPP
F:\GODOT\JEREPROJECT\GODOT-CPP-MASTER\INCLUDE\CORE\VECTOR2.HPP
F:\GODOT\JEREPROJECT\GODOT-CPP-MASTER\INCLUDE\CORE\QUAT.HPP
F:\GODOT\JEREPROJECT\GODOT-CPP-MASTER\INCLUDE\CORE\RID.HPP
F:\GODOT\JEREPROJECT\GODOT-CPP-MASTER\INCLUDE\CORE\RECT2.HPP
F:\GODOT\JEREPROJECT\GODOT-CPP-MASTER\INCLUDE\CORE\TRANSFORM.HPP
F:\GODOT\JEREPROJECT\GODOT-CPP-MASTER\INCLUDE\CORE\TRANSFORM2D.HPP
C:\PROGRAM FILES (X86)\MICROSOFT VISUAL STUDIO\2017\COMMUNITY\VC\TOOLS\MSVC\14.16.27023\INCLUDE\IOSTREAM
C:\PROGRAM FILES (X86)\MICROSOFT VISUAL STUDIO\2017\COMMUNITY\VC\TOOLS\MSVC\14.16.27023\INCLUDE\ISTREAM
C:\PROGRAM FILES (X86)\MICROSOFT VISUAL STUDIO\2017\COMMUNITY\VC\TOOLS\MSVC\14.16.27023\INCLUDE\OSTREAM
C:\PROGRAM FILES (X86)\MICROSOFT VISUAL STUDIO\2017\COMMUNITY\VC\TOOLS\MSVC\14.16.27023\INCLUDE\IOS
C:\PROGRAM FILES (X86)\MICROSOFT VISUAL STUDIO\2017\COMMUNITY\VC\TOOLS\MSVC\14.16.27023\INCLUDE\XLOCNUM
C:\PROGRAM FILES (X86)\MICROSOFT VISUAL STUDIO\2017\COMMUNITY\VC\TOOLS\MSVC\14.16.27023\INCLUDE\CLIMITS
C:\PROGRAM FILES (X86)\MICROSOFT VISUAL STUDIO\2017\COMMUNITY\VC\TOOLS\MSVC\14.16.27023\INCLUDE\CSTDIO
C:\PROGRAM FILES (X86)\WINDOWS KITS\10\INCLUDE\10.0.17763.0\UCRT\STDIO.H
C:\PROGRAM FILES (X86)\MICROSOFT VISUAL STUDIO\2017\COMMUNITY\VC\TOOLS\MSVC\14.16.27023\INCLUDE\STREAMBUF
C:\PROGRAM FILES (X86)\MICROSOFT VISUAL STUDIO\2017\COMMUNITY\VC\TOOLS\MSVC\14.16.27023\INCLUDE\XIOSBASE
C:\PROGRAM FILES (X86)\MICROSOFT VISUAL STUDIO\2017\COMMUNITY\VC\TOOLS\MSVC\14.16.27023\INCLUDE\XLOCALE
C:\PROGRAM FILES (X86)\MICROSOFT VISUAL STUDIO\2017\COMMUNITY\VC\TOOLS\MSVC\14.16.27023\INCLUDE\STDEXCEPT
C:\PROGRAM FILES (X86)\MICROSOFT VISUAL STUDIO\2017\COMMUNITY\VC\TOOLS\MSVC\14.16.27023\INCLUDE\XSTRING
C:\PROGRAM FILES (X86)\MICROSOFT VISUAL STUDIO\2017\COMMUNITY\VC\TOOLS\MSVC\14.16.27023\INCLUDE\XMEMORY0
C:\PROGRAM FILES (X86)\MICROSOFT VISUAL STUDIO\2017\COMMUNITY\VC\TOOLS\MSVC\14.16.27023\INCLUDE\CSTDINT
C:\PROGRAM FILES (X86)\MICROSOFT VISUAL STUDIO\2017\COMMUNITY\VC\TOOLS\MSVC\14.16.27023\INCLUDE\LIMITS
C:\PROGRAM FILES (X86)\MICROSOFT VISUAL STUDIO\2017\COMMUNITY\VC\TOOLS\MSVC\14.16.27023\INCLUDE\YMATH.H
C:\PROGRAM FILES (X86)\MICROSOFT VISUAL STUDIO\2017\COMMUNITY\VC\TOOLS\MSVC\14.16.27023\INCLUDE\CFLOAT
C:\PROGRAM FILES (X86)\WINDOWS KITS\10\INCLUDE\10.0.17763.0\UCRT\FLOAT.H
C:\PROGRAM FILES (X86)\MICROSOFT VISUAL STUDIO\2017\COMMUNITY\VC\TOOLS\MSVC\14.16.27023\INCLUDE\CWCHAR
C:\PROGRAM FILES (X86)\MICROSOFT VISUAL STUDIO\2017\COMMUNITY\VC\TOOLS\MSVC\14.16.27023\INCLUDE\NEW
C:\PROGRAM FILES (X86)\MICROSOFT VISUAL STUDIO\2017\COMMUNITY\VC\TOOLS\MSVC\14.16.27023\INCLUDE\XUTILITY
C:\PROGRAM FILES (X86)\MICROSOFT VISUAL STUDIO\2017\COMMUNITY\VC\TOOLS\MSVC\14.16.27023\INCLUDE\UTILITY
C:\PROGRAM FILES (X86)\MICROSOFT VISUAL STUDIO\2017\COMMUNITY\VC\TOOLS\MSVC\14.16.27023\INCLUDE\IOSFWD
C:\PROGRAM FILES (X86)\MICROSOFT VISUAL STUDIO\2017\COMMUNITY\VC\TOOLS\MSVC\14.16.27023\INCLUDE\XATOMIC0.H
C:\PROGRAM FILES (X86)\MICROSOFT VISUAL STUDIO\2017\COMMUNITY\VC\TOOLS\MSVC\14.16.27023\INCLUDE\INTRIN0.H
C:\PROGRAM FILES (X86)\MICROSOFT VISUAL STUDIO\2017\COMMUNITY\VC\TOOLS\MSVC\14.16.27023\INCLUDE\XLOCINFO
C:\PROGRAM FILES (X86)\MICROSOFT VISUAL STUDIO\2017\COMMUNITY\VC\TOOLS\MSVC\14.16.27023\INCLUDE\XLOCINFO.H
C:\PROGRAM FILES (X86)\WINDOWS KITS\10\INCLUDE\10.0.17763.0\UCRT\CTYPE.H
C:\PROGRAM FILES (X86)\WINDOWS KITS\10\INCLUDE\10.0.17763.0\UCRT\LOCALE.H
C:\PROGRAM FILES (X86)\MICROSOFT VISUAL STUDIO\2017\COMMUNITY\VC\TOOLS\MSVC\14.16.27023\INCLUDE\MEMORY
C:\PROGRAM FILES (X86)\MICROSOFT VISUAL STUDIO\2017\COMMUNITY\VC\TOOLS\MSVC\14.16.27023\INCLUDE\XMEMORY
C:\PROGRAM FILES (X86)\MICROSOFT VISUAL STUDIO\2017\COMMUNITY\VC\TOOLS\MSVC\14.16.27023\INCLUDE\XFACET
C:\PROGRAM FILES (X86)\MICROSOFT VISUAL STUDIO\2017\COMMUNITY\VC\TOOLS\MSVC\14.16.27023\INCLUDE\SYSTEM_ERROR
C:\PROGRAM FILES (X86)\MICROSOFT VISUAL STUDIO\2017\COMMUNITY\VC\TOOLS\MSVC\14.16.27023\INCLUDE\CERRNO
C:\PROGRAM FILES (X86)\MICROSOFT VISUAL STUDIO\2017\COMMUNITY\VC\TOOLS\MSVC\14.16.27023\INCLUDE\XCALL_ONCE.H
C:\PROGRAM FILES (X86)\MICROSOFT VISUAL STUDIO\2017\COMMUNITY\VC\TOOLS\MSVC\14.16.27023\INCLUDE\XERRC.H
C:\PROGRAM FILES (X86)\WINDOWS KITS\10\INCLUDE\10.0.17763.0\UCRT\SHARE.H
F:\GODOT\JEREPROJECT\GODOT-CPP-MASTER\INCLUDE\CORE\WRAPPED.HPP
F:\GODOT\JEREPROJECT\GODOT-CPP-MASTER\INCLUDE\CORE\REF.HPP
F:\GODOT\JEREPROJECT\GODOT-CPP-MASTER\INCLUDE\GEN\REFERENCE.HPP
F:\GODOT\JEREPROJECT\GODOT-CPP-MASTER\INCLUDE\CORE\TAGDB.HPP
F:\GODOT\JEREPROJECT\GODOT-CPP-MASTER\INCLUDE\GEN\OBJECT.HPP
F:\GODOT\JEREPROJECT\GODOT-CPP-MASTER\INCLUDE\GEN\GDNATIVELIBRARY.HPP
F:\GODOT\JEREPROJECT\GODOT-CPP-MASTER\INCLUDE\GEN\RESOURCE.HPP
F:\GODOT\JEREPROJECT\GODOT-CPP-MASTER\INCLUDE\GEN\NATIVESCRIPT.HPP
F:\GODOT\JEREPROJECT\GODOT-CPP-MASTER\INCLUDE\GEN\SCRIPT.HPP
F:\GODOT\JEREPROJECT\GODOT-CPP-MASTER\INCLUDE\GEN\SPRITE.HPP
F:\GODOT\JEREPROJECT\GODOT-CPP-MASTER\INCLUDE\GEN\NODE2D.HPP
F:\GODOT\JEREPROJECT\GODOT-CPP-MASTER\INCLUDE\GEN\CANVASITEM.HPP
F:\GODOT\JEREPROJECT\GODOT-CPP-MASTER\INCLUDE\GEN\NODE.HPP
^F:\GODOT\JEREPROJECT\VISUALSTUDIOPROJECT\VISUALSTUDIOPROJECT\GODOTLIBRARY.CPP
F:\GODOT\JEREPROJECT\VISUALSTUDIOPROJECT\VISUALSTUDIOPROJECT\GDEXAMPLE.H
F:\GODOT\JEREPROJECT\GODOT-CPP-MASTER\INCLUDE\CORE\GODOT.HPP
C:\PROGRAM FILES (X86)\MICROSOFT VISUAL STUDIO\2017\COMMUNITY\VC\TOOLS\MSVC\14.16.27023\INCLUDE\CSTDLIB
C:\PROGRAM FILES (X86)\MICROSOFT VISUAL STUDIO\2017\COMMUNITY\VC\TOOLS\MSVC\14.16.27023\INCLUDE\YVALS_CORE.H
C:\PROGRAM FILES (X86)\MICROSOFT VISUAL STUDIO\2017\COMMUNITY\VC\TOOLS\MSVC\14.16.27023\INCLUDE\XKEYCHECK.H
C:\PROGRAM FILES (X86)\MICROSOFT VISUAL STUDIO\2017\COMMUNITY\VC\TOOLS\MSVC\14.16.27023\INCLUDE\CRTDEFS.H
C:\PROGRAM FILES (X86)\MICROSOFT VISUAL STUDIO\2017\COMMUNITY\VC\TOOLS\MSVC\14.16.27023\INCLUDE\VCRUNTIME.H
C:\PROGRAM FILES (X86)\MICROSOFT VISUAL STUDIO\2017\COMMUNITY\VC\TOOLS\MSVC\14.16.27023\INCLUDE\SAL.H
C:\PROGRAM FILES (X86)\MICROSOFT VISUAL STUDIO\2017\COMMUNITY\VC\TOOLS\MSVC\14.16.27023\INCLUDE\CONCURRENCYSAL.H
C:\PROGRAM FILES (X86)\MICROSOFT VISUAL STUDIO\2017\COMMUNITY\VC\TOOLS\MSVC\14.16.27023\INCLUDE\VADEFS.H
C:\PROGRAM FILES (X86)\WINDOWS KITS\10\INCLUDE\10.0.17763.0\UCRT\CORECRT.H
C:\PROGRAM FILES (X86)\WINDOWS KITS\10\INCLUDE\10.0.17763.0\UCRT\STDLIB.H
C:\PROGRAM FILES (X86)\WINDOWS KITS\10\INCLUDE\10.0.17763.0\UCRT\CORECRT_MALLOC.H
C:\PROGRAM FILES (X86)\WINDOWS KITS\10\INCLUDE\10.0.17763.0\UCRT\CORECRT_SEARCH.H
C:\PROGRAM FILES (X86)\WINDOWS KITS\10\INCLUDE\10.0.17763.0\UCRT\STDDEF.H
C:\PROGRAM FILES (X86)\WINDOWS KITS\10\INCLUDE\10.0.17763.0\UCRT\CORECRT_WSTDLIB.H
C:\PROGRAM FILES (X86)\MICROSOFT VISUAL STUDIO\2017\COMMUNITY\VC\TOOLS\MSVC\14.16.27023\INCLUDE\LIMITS.H
C:\PROGRAM FILES (X86)\WINDOWS KITS\10\INCLUDE\10.0.17763.0\UCRT\MATH.H
C:\PROGRAM FILES (X86)\WINDOWS KITS\10\INCLUDE\10.0.17763.0\UCRT\CORECRT_MATH.H
C:\PROGRAM FILES (X86)\MICROSOFT VISUAL STUDIO\2017\COMMUNITY\VC\TOOLS\MSVC\14.16.27023\INCLUDE\CSTRING
C:\PROGRAM FILES (X86)\MICROSOFT VISUAL STUDIO\2017\COMMUNITY\VC\TOOLS\MSVC\14.16.27023\INCLUDE\YVALS.H
C:\PROGRAM FILES (X86)\WINDOWS KITS\10\INCLUDE\10.0.17763.0\UCRT\CRTDBG.H
C:\PROGRAM FILES (X86)\MICROSOFT VISUAL STUDIO\2017\COMMUNITY\VC\TOOLS\MSVC\14.16.27023\INCLUDE\VCRUNTIME_NEW_DEBUG.H
C:\PROGRAM FILES (X86)\MICROSOFT VISUAL STUDIO\2017\COMMUNITY\VC\TOOLS\MSVC\14.16.27023\INCLUDE\VCRUNTIME_NEW.H
C:\PROGRAM FILES (X86)\MICROSOFT VISUAL STUDIO\2017\COMMUNITY\VC\TOOLS\MSVC\14.16.27023\INCLUDE\USE_ANSI.H
C:\PROGRAM FILES (X86)\WINDOWS KITS\10\INCLUDE\10.0.17763.0\UCRT\STRING.H
C:\PROGRAM FILES (X86)\WINDOWS KITS\10\INCLUDE\10.0.17763.0\UCRT\CORECRT_MEMORY.H
C:\PROGRAM FILES (X86)\WINDOWS KITS\10\INCLUDE\10.0.17763.0\UCRT\CORECRT_MEMCPY_S.H
C:\PROGRAM FILES (X86)\WINDOWS KITS\10\INCLUDE\10.0.17763.0\UCRT\ERRNO.H
C:\PROGRAM FILES (X86)\MICROSOFT VISUAL STUDIO\2017\COMMUNITY\VC\TOOLS\MSVC\14.16.27023\INCLUDE\VCRUNTIME_STRING.H
C:\PROGRAM FILES (X86)\WINDOWS KITS\10\INCLUDE\10.0.17763.0\UCRT\CORECRT_WSTRING.H
F:\GODOT\JEREPROJECT\GODOT-CPP-MASTER\GODOT_HEADERS\GDNATIVE_API_STRUCT.GEN.H
F:\GODOT\JEREPROJECT\GODOT-CPP-MASTER\GODOT_HEADERS\GDNATIVE\GDNATIVE.H
C:\PROGRAM FILES (X86)\MICROSOFT VISUAL STUDIO\2017\COMMUNITY\VC\TOOLS\MSVC\14.16.27023\INCLUDE\STDBOOL.H
C:\PROGRAM FILES (X86)\MICROSOFT VISUAL STUDIO\2017\COMMUNITY\VC\TOOLS\MSVC\14.16.27023\INCLUDE\STDINT.H
F:\GODOT\JEREPROJECT\GODOT-CPP-MASTER\GODOT_HEADERS\GDNATIVE\STRING.H
C:\PROGRAM FILES (X86)\WINDOWS KITS\10\INCLUDE\10.0.17763.0\UCRT\WCHAR.H
C:\PROGRAM FILES (X86)\WINDOWS KITS\10\INCLUDE\10.0.17763.0\UCRT\CORECRT_WCONIO.H
C:\PROGRAM FILES (X86)\WINDOWS KITS\10\INCLUDE\10.0.17763.0\UCRT\CORECRT_STDIO_CONFIG.H
C:\PROGRAM FILES (X86)\WINDOWS KITS\10\INCLUDE\10.0.17763.0\UCRT\CORECRT_WCTYPE.H
C:\PROGRAM FILES (X86)\WINDOWS KITS\10\INCLUDE\10.0.17763.0\UCRT\CORECRT_WDIRECT.H
C:\PROGRAM FILES (X86)\WINDOWS KITS\10\INCLUDE\10.0.17763.0\UCRT\CORECRT_WIO.H
C:\PROGRAM FILES (X86)\WINDOWS KITS\10\INCLUDE\10.0.17763.0\UCRT\CORECRT_SHARE.H
C:\PROGRAM FILES (X86)\WINDOWS KITS\10\INCLUDE\10.0.17763.0\UCRT\CORECRT_WPROCESS.H
C:\PROGRAM FILES (X86)\WINDOWS KITS\10\INCLUDE\10.0.17763.0\UCRT\CORECRT_WSTDIO.H
C:\PROGRAM FILES (X86)\WINDOWS KITS\10\INCLUDE\10.0.17763.0\UCRT\CORECRT_WTIME.H
C:\PROGRAM FILES (X86)\WINDOWS KITS\10\INCLUDE\10.0.17763.0\UCRT\SYS\STAT.H
C:\PROGRAM FILES (X86)\WINDOWS KITS\10\INCLUDE\10.0.17763.0\UCRT\SYS\TYPES.H
F:\GODOT\JEREPROJECT\GODOT-CPP-MASTER\GODOT_HEADERS\GDNATIVE\ARRAY.H
F:\GODOT\JEREPROJECT\GODOT-CPP-MASTER\GODOT_HEADERS\GDNATIVE\POOL_ARRAYS.H
F:\GODOT\JEREPROJECT\GODOT-CPP-MASTER\GODOT_HEADERS\GDNATIVE\COLOR.H
F:\GODOT\JEREPROJECT\GODOT-CPP-MASTER\GODOT_HEADERS\GDNATIVE\VECTOR2.H
F:\GODOT\JEREPROJECT\GODOT-CPP-MASTER\GODOT_HEADERS\GDNATIVE\VECTOR3.H
F:\GODOT\JEREPROJECT\GODOT-CPP-MASTER\GODOT_HEADERS\GDNATIVE\BASIS.H
F:\GODOT\JEREPROJECT\GODOT-CPP-MASTER\GODOT_HEADERS\GDNATIVE\QUAT.H
F:\GODOT\JEREPROJECT\GODOT-CPP-MASTER\GODOT_HEADERS\GDNATIVE\VARIANT.H
F:\GODOT\JEREPROJECT\GODOT-CPP-MASTER\GODOT_HEADERS\GDNATIVE\AABB.H
F:\GODOT\JEREPROJECT\GODOT-CPP-MASTER\GODOT_HEADERS\GDNATIVE\PLANE.H
F:\GODOT\JEREPROJECT\GODOT-CPP-MASTER\GODOT_HEADERS\GDNATIVE\DICTIONARY.H
F:\GODOT\JEREPROJECT\GODOT-CPP-MASTER\GODOT_HEADERS\GDNATIVE\NODE_PATH.H
F:\GODOT\JEREPROJECT\GODOT-CPP-MASTER\GODOT_HEADERS\GDNATIVE\RECT2.H
F:\GODOT\JEREPROJECT\GODOT-CPP-MASTER\GODOT_HEADERS\GDNATIVE\RID.H
F:\GODOT\JEREPROJECT\GODOT-CPP-MASTER\GODOT_HEADERS\GDNATIVE\TRANSFORM.H
F:\GODOT\JEREPROJECT\GODOT-CPP-MASTER\GODOT_HEADERS\GDNATIVE\TRANSFORM2D.H
F:\GODOT\JEREPROJECT\GODOT-CPP-MASTER\GODOT_HEADERS\GDNATIVE\STRING_NAME.H
F:\GODOT\JEREPROJECT\GODOT-CPP-MASTER\GODOT_HEADERS\ANDROID\GODOT_ANDROID.H
F:\GODOT\JEREPROJECT\GODOT-CPP-MASTER\GODOT_HEADERS\ARVR\GODOT_ARVR.H
F:\GODOT\JEREPROJECT\GODOT-CPP-MASTER\GODOT_HEADERS\NATIVESCRIPT\GODOT_NATIVESCRIPT.H
F:\GODOT\JEREPROJECT\GODOT-CPP-MASTER\GODOT_HEADERS\NET\GODOT_NET.H
F:\GODOT\JEREPROJECT\GODOT-CPP-MASTER\GODOT_HEADERS\NET\GODOT_WEBRTC.H
F:\GODOT\JEREPROJECT\GODOT-CPP-MASTER\GODOT_HEADERS\PLUGINSCRIPT\GODOT_PLUGINSCRIPT.H
F:\GODOT\JEREPROJECT\GODOT-CPP-MASTER\GODOT_HEADERS\VIDEODECODER\GODOT_VIDEODECODER.H
C:\PROGRAM FILES (X86)\MICROSOFT VISUAL STUDIO\2017\COMMUNITY\VC\TOOLS\MSVC\14.16.27023\INCLUDE\TYPEINFO
C:\PROGRAM FILES (X86)\MICROSOFT VISUAL STUDIO\2017\COMMUNITY\VC\TOOLS\MSVC\14.16.27023\INCLUDE\EXCEPTION
C:\PROGRAM FILES (X86)\MICROSOFT VISUAL STUDIO\2017\COMMUNITY\VC\TOOLS\MSVC\14.16.27023\INCLUDE\TYPE_TRAITS
C:\PROGRAM FILES (X86)\MICROSOFT VISUAL STUDIO\2017\COMMUNITY\VC\TOOLS\MSVC\14.16.27023\INCLUDE\XSTDDEF
C:\PROGRAM FILES (X86)\MICROSOFT VISUAL STUDIO\2017\COMMUNITY\VC\TOOLS\MSVC\14.16.27023\INCLUDE\CSTDDEF
C:\PROGRAM FILES (X86)\MICROSOFT VISUAL STUDIO\2017\COMMUNITY\VC\TOOLS\MSVC\14.16.27023\INCLUDE\XTR1COMMON
C:\PROGRAM FILES (X86)\MICROSOFT VISUAL STUDIO\2017\COMMUNITY\VC\TOOLS\MSVC\14.16.27023\INCLUDE\INITIALIZER_LIST
C:\PROGRAM FILES (X86)\WINDOWS KITS\10\INCLUDE\10.0.17763.0\UCRT\MALLOC.H
C:\PROGRAM FILES (X86)\MICROSOFT VISUAL STUDIO\2017\COMMUNITY\VC\TOOLS\MSVC\14.16.27023\INCLUDE\VCRUNTIME_EXCEPTION.H
C:\PROGRAM FILES (X86)\MICROSOFT VISUAL STUDIO\2017\COMMUNITY\VC\TOOLS\MSVC\14.16.27023\INCLUDE\EH.H
C:\PROGRAM FILES (X86)\WINDOWS KITS\10\INCLUDE\10.0.17763.0\UCRT\CORECRT_TERMINATE.H
C:\PROGRAM FILES (X86)\MICROSOFT VISUAL STUDIO\2017\COMMUNITY\VC\TOOLS\MSVC\14.16.27023\INCLUDE\VCRUNTIME_TYPEINFO.H
F:\GODOT\JEREPROJECT\GODOT-CPP-MASTER\INCLUDE\CORE\CORETYPES.HPP
F:\GODOT\JEREPROJECT\GODOT-CPP-MASTER\INCLUDE\CORE\DEFS.HPP
F:\GODOT\JEREPROJECT\GODOT-CPP-MASTER\INCLUDE\CORE\GODOTGLOBAL.HPP
F:\GODOT\JEREPROJECT\GODOT-CPP-MASTER\INCLUDE\CORE\ARRAY.HPP
F:\GODOT\JEREPROJECT\GODOT-CPP-MASTER\INCLUDE\CORE\STRING.HPP
F:\GODOT\JEREPROJECT\GODOT-CPP-MASTER\INCLUDE\CORE\AABB.HPP
F:\GODOT\JEREPROJECT\GODOT-CPP-MASTER\INCLUDE\CORE\VECTOR3.HPP
C:\PROGRAM FILES (X86)\MICROSOFT VISUAL STUDIO\2017\COMMUNITY\VC\TOOLS\MSVC\14.16.27023\INCLUDE\CMATH
C:\PROGRAM FILES (X86)\MICROSOFT VISUAL STUDIO\2017\COMMUNITY\VC\TOOLS\MSVC\14.16.27023\INCLUDE\XTGMATH.H
F:\GODOT\JEREPROJECT\GODOT-CPP-MASTER\INCLUDE\CORE\PLANE.HPP
F:\GODOT\JEREPROJECT\GODOT-CPP-MASTER\INCLUDE\CORE\BASIS.HPP
F:\GODOT\JEREPROJECT\GODOT-CPP-MASTER\INCLUDE\CORE\COLOR.HPP
F:\GODOT\JEREPROJECT\GODOT-CPP-MASTER\INCLUDE\CORE\DICTIONARY.HPP
F:\GODOT\JEREPROJECT\GODOT-CPP-MASTER\INCLUDE\CORE\VARIANT.HPP
F:\GODOT\JEREPROJECT\GODOT-CPP-MASTER\INCLUDE\CORE\NODEPATH.HPP
F:\GODOT\JEREPROJECT\GODOT-CPP-MASTER\INCLUDE\CORE\POOLARRAYS.HPP
F:\GODOT\JEREPROJECT\GODOT-CPP-MASTER\INCLUDE\CORE\VECTOR2.HPP
F:\GODOT\JEREPROJECT\GODOT-CPP-MASTER\INCLUDE\CORE\QUAT.HPP
F:\GODOT\JEREPROJECT\GODOT-CPP-MASTER\INCLUDE\CORE\RID.HPP
F:\GODOT\JEREPROJECT\GODOT-CPP-MASTER\INCLUDE\CORE\RECT2.HPP
F:\GODOT\JEREPROJECT\GODOT-CPP-MASTER\INCLUDE\CORE\TRANSFORM.HPP
F:\GODOT\JEREPROJECT\GODOT-CPP-MASTER\INCLUDE\CORE\TRANSFORM2D.HPP
C:\PROGRAM FILES (X86)\MICROSOFT VISUAL STUDIO\2017\COMMUNITY\VC\TOOLS\MSVC\14.16.27023\INCLUDE\IOSTREAM
C:\PROGRAM FILES (X86)\MICROSOFT VISUAL STUDIO\2017\COMMUNITY\VC\TOOLS\MSVC\14.16.27023\INCLUDE\ISTREAM
C:\PROGRAM FILES (X86)\MICROSOFT VISUAL STUDIO\2017\COMMUNITY\VC\TOOLS\MSVC\14.16.27023\INCLUDE\OSTREAM
C:\PROGRAM FILES (X86)\MICROSOFT VISUAL STUDIO\2017\COMMUNITY\VC\TOOLS\MSVC\14.16.27023\INCLUDE\IOS
C:\PROGRAM FILES (X86)\MICROSOFT VISUAL STUDIO\2017\COMMUNITY\VC\TOOLS\MSVC\14.16.27023\INCLUDE\XLOCNUM
C:\PROGRAM FILES (X86)\MICROSOFT VISUAL STUDIO\2017\COMMUNITY\VC\TOOLS\MSVC\14.16.27023\INCLUDE\CLIMITS
C:\PROGRAM FILES (X86)\MICROSOFT VISUAL STUDIO\2017\COMMUNITY\VC\TOOLS\MSVC\14.16.27023\INCLUDE\CSTDIO
C:\PROGRAM FILES (X86)\WINDOWS KITS\10\INCLUDE\10.0.17763.0\UCRT\STDIO.H
C:\PROGRAM FILES (X86)\MICROSOFT VISUAL STUDIO\2017\COMMUNITY\VC\TOOLS\MSVC\14.16.27023\INCLUDE\STREAMBUF
C:\PROGRAM FILES (X86)\MICROSOFT VISUAL STUDIO\2017\COMMUNITY\VC\TOOLS\MSVC\14.16.27023\INCLUDE\XIOSBASE
C:\PROGRAM FILES (X86)\MICROSOFT VISUAL STUDIO\2017\COMMUNITY\VC\TOOLS\MSVC\14.16.27023\INCLUDE\XLOCALE
C:\PROGRAM FILES (X86)\MICROSOFT VISUAL STUDIO\2017\COMMUNITY\VC\TOOLS\MSVC\14.16.27023\INCLUDE\STDEXCEPT
C:\PROGRAM FILES (X86)\MICROSOFT VISUAL STUDIO\2017\COMMUNITY\VC\TOOLS\MSVC\14.16.27023\INCLUDE\XSTRING
C:\PROGRAM FILES (X86)\MICROSOFT VISUAL STUDIO\2017\COMMUNITY\VC\TOOLS\MSVC\14.16.27023\INCLUDE\XMEMORY0
C:\PROGRAM FILES (X86)\MICROSOFT VISUAL STUDIO\2017\COMMUNITY\VC\TOOLS\MSVC\14.16.27023\INCLUDE\CSTDINT
C:\PROGRAM FILES (X86)\MICROSOFT VISUAL STUDIO\2017\COMMUNITY\VC\TOOLS\MSVC\14.16.27023\INCLUDE\LIMITS
C:\PROGRAM FILES (X86)\MICROSOFT VISUAL STUDIO\2017\COMMUNITY\VC\TOOLS\MSVC\14.16.27023\INCLUDE\YMATH.H
C:\PROGRAM FILES (X86)\MICROSOFT VISUAL STUDIO\2017\COMMUNITY\VC\TOOLS\MSVC\14.16.27023\INCLUDE\CFLOAT
C:\PROGRAM FILES (X86)\WINDOWS KITS\10\INCLUDE\10.0.17763.0\UCRT\FLOAT.H
C:\PROGRAM FILES (X86)\MICROSOFT VISUAL STUDIO\2017\COMMUNITY\VC\TOOLS\MSVC\14.16.27023\INCLUDE\CWCHAR
C:\PROGRAM FILES (X86)\MICROSOFT VISUAL STUDIO\2017\COMMUNITY\VC\TOOLS\MSVC\14.16.27023\INCLUDE\NEW
C:\PROGRAM FILES (X86)\MICROSOFT VISUAL STUDIO\2017\COMMUNITY\VC\TOOLS\MSVC\14.16.27023\INCLUDE\XUTILITY
C:\PROGRAM FILES (X86)\MICROSOFT VISUAL STUDIO\2017\COMMUNITY\VC\TOOLS\MSVC\14.16.27023\INCLUDE\UTILITY
C:\PROGRAM FILES (X86)\MICROSOFT VISUAL STUDIO\2017\COMMUNITY\VC\TOOLS\MSVC\14.16.27023\INCLUDE\IOSFWD
C:\PROGRAM FILES (X86)\MICROSOFT VISUAL STUDIO\2017\COMMUNITY\VC\TOOLS\MSVC\14.16.27023\INCLUDE\XATOMIC0.H
C:\PROGRAM FILES (X86)\MICROSOFT VISUAL STUDIO\2017\COMMUNITY\VC\TOOLS\MSVC\14.16.27023\INCLUDE\INTRIN0.H
C:\PROGRAM FILES (X86)\MICROSOFT VISUAL STUDIO\2017\COMMUNITY\VC\TOOLS\MSVC\14.16.27023\INCLUDE\XLOCINFO
C:\PROGRAM FILES (X86)\MICROSOFT VISUAL STUDIO\2017\COMMUNITY\VC\TOOLS\MSVC\14.16.27023\INCLUDE\XLOCINFO.H
C:\PROGRAM FILES (X86)\WINDOWS KITS\10\INCLUDE\10.0.17763.0\UCRT\CTYPE.H
C:\PROGRAM FILES (X86)\WINDOWS KITS\10\INCLUDE\10.0.17763.0\UCRT\LOCALE.H
C:\PROGRAM FILES (X86)\MICROSOFT VISUAL STUDIO\2017\COMMUNITY\VC\TOOLS\MSVC\14.16.27023\INCLUDE\MEMORY
C:\PROGRAM FILES (X86)\MICROSOFT VISUAL STUDIO\2017\COMMUNITY\VC\TOOLS\MSVC\14.16.27023\INCLUDE\XMEMORY
C:\PROGRAM FILES (X86)\MICROSOFT VISUAL STUDIO\2017\COMMUNITY\VC\TOOLS\MSVC\14.16.27023\INCLUDE\XFACET
C:\PROGRAM FILES (X86)\MICROSOFT VISUAL STUDIO\2017\COMMUNITY\VC\TOOLS\MSVC\14.16.27023\INCLUDE\SYSTEM_ERROR
C:\PROGRAM FILES (X86)\MICROSOFT VISUAL STUDIO\2017\COMMUNITY\VC\TOOLS\MSVC\14.16.27023\INCLUDE\CERRNO
C:\PROGRAM FILES (X86)\MICROSOFT VISUAL STUDIO\2017\COMMUNITY\VC\TOOLS\MSVC\14.16.27023\INCLUDE\XCALL_ONCE.H
C:\PROGRAM FILES (X86)\MICROSOFT VISUAL STUDIO\2017\COMMUNITY\VC\TOOLS\MSVC\14.16.27023\INCLUDE\XERRC.H
C:\PROGRAM FILES (X86)\WINDOWS KITS\10\INCLUDE\10.0.17763.0\UCRT\SHARE.H
F:\GODOT\JEREPROJECT\GODOT-CPP-MASTER\INCLUDE\CORE\WRAPPED.HPP
F:\GODOT\JEREPROJECT\GODOT-CPP-MASTER\INCLUDE\CORE\REF.HPP
F:\GODOT\JEREPROJECT\GODOT-CPP-MASTER\INCLUDE\GEN\REFERENCE.HPP
F:\GODOT\JEREPROJECT\GODOT-CPP-MASTER\INCLUDE\CORE\TAGDB.HPP
F:\GODOT\JEREPROJECT\GODOT-CPP-MASTER\INCLUDE\GEN\OBJECT.HPP
F:\GODOT\JEREPROJECT\GODOT-CPP-MASTER\INCLUDE\GEN\GDNATIVELIBRARY.HPP
F:\GODOT\JEREPROJECT\GODOT-CPP-MASTER\INCLUDE\GEN\RESOURCE.HPP
F:\GODOT\JEREPROJECT\GODOT-CPP-MASTER\INCLUDE\GEN\NATIVESCRIPT.HPP
F:\GODOT\JEREPROJECT\GODOT-CPP-MASTER\INCLUDE\GEN\SCRIPT.HPP
F:\GODOT\JEREPROJECT\GODOT-CPP-MASTER\INCLUDE\GEN\SPRITE.HPP
F:\GODOT\JEREPROJECT\GODOT-CPP-MASTER\INCLUDE\GEN\NODE2D.HPP
F:\GODOT\JEREPROJECT\GODOT-CPP-MASTER\INCLUDE\GEN\CANVASITEM.HPP
F:\GODOT\JEREPROJECT\GODOT-CPP-MASTER\INCLUDE\GEN\NODE.HPP
